"Nome campo"	"Tipo"	"Iniziale"	"Finale"	"Lung"	"Default"	"Descrizione"
"CodTipoRec"	"CHR"	1	1	1	"I"	"Contiene il carattere “I”"
"CFCSOGG"	"NUM"	2	16	15	9770	"Codice soggetto Ago (Ditta)"
"CFNPROGVSCH"	"NUM"	17	17	1	1	"Progressivo scheda: 1 ordinaria, 2 semplificata"
"Filler1"	"FILLER"	18	23	6		
"NumSped"	"NUM"	24	33	10	1	"Numero importazione"
"DataSped"	"D"	34	41	8		"Data importazione"
"AppReg"	"CHR"	42	46	5	"G1007"	"Codice applicazione registrata"
"Filler2"	"FILLER"	47	500	454		
